128166385295514663,hm,0,Write,9056014336,2048,2833
128166385295514878,hm,0,Write,11855351808,512,2617
128166385295515175,hm,0,Write,5548077056,4096,2320
128166385301451520,hm,0,Write,3163095040,40960,3438
128166385301453920,hm,0,Write,3154132992,4096,1037
128166385301454075,hm,0,Write,3154128896,4096,883
128166385305515297,hm,0,Write,1444548608,1536,2135
128166385305515377,hm,0,Write,5584445440,1024,2054
128166385315513743,hm,0,Write,8477745152,16384,3625
128166385315514492,hm,0,Write,8477937664,8192,2875
128166385315514500,hm,0,Write,11026329600,4096,2868
128166385315515043,hm,0,Write,369532928,1024,2324
128166385325514552,hm,0,Write,8141848576,4096,2751
128166385325514971,hm,0,Write,6263287808,5632,2333
128166385334109048,hm,0,Write,1023467520,512,1950
128166385334109373,hm,0,Write,1024086016,1024,1626
128166385334109395,hm,0,Write,13532673536,8192,1604
128166385334109535,hm,0,Write,13532667904,5632,1463
128166385334109614,hm,0,Write,1885716480,16384,1385
128166385334109615,hm,0,Write,5938913280,16384,1383
128166385334109652,hm,0,Write,1885716480,16384,1346
128166385334109731,hm,0,Write,1023476224,7680,1267
128166385334109860,hm,0,Write,3154137088,4096,1139
128166385334109933,hm,0,Write,1023475712,512,1065
128166385334109945,hm,0,Write,6172327936,8192,1054
128166385334110010,hm,0,Write,1023473152,2560,988
128166385334110011,hm,0,Write,1023469056,4096,987
128166385334110033,hm,0,Write,1885716480,4096,966
128166385334110059,hm,0,Write,3154132992,4096,939
128166385334110080,hm,0,Write,3163136000,4096,919
128166385334110084,hm,0,Write,3227922432,4096,914
128166385334110106,hm,0,Write,1023483904,4096,892
128166385334110114,hm,0,Write,3154137088,4096,885
128166385334110136,hm,0,Write,1023483904,4096,862
128166385334110137,hm,0,Write,1023483904,4096,861
128166385334110161,hm,0,Write,3154137088,4096,838
128166385334110175,hm,0,Write,3227922432,4096,823
128166385334110196,hm,0,Write,3154132992,4096,802
128166385334110271,hm,0,Write,1023468032,1024,728
128166385334110312,hm,0,Write,1023467520,512,686
128166385334265485,hm,0,Write,200626176,16384,1763
128166385334265553,hm,0,Write,1076269056,1024,1695
128166385334265558,hm,0,Write,1064435712,1024,1689
128166385334265617,hm,0,Write,211292160,16384,1630
128166385334265781,hm,0,Write,293150720,4096,1466
128166385334265814,hm,0,Write,3154132992,4096,1433
128166385334265819,hm,0,Write,209457152,16384,1428
128166385334265833,hm,0,Write,200626176,16384,1414
128166385334265835,hm,0,Write,1042001920,4096,1413
128166385334265846,hm,0,Write,292958208,16384,1402
128166385334265879,hm,0,Write,1068384256,4096,1369
128166385334265884,hm,0,Write,293138432,16384,1364
128166385334265894,hm,0,Write,292958208,16384,1353
128166385334265963,hm,0,Write,1160540160,512,1284
128166385334265997,hm,0,Write,3154137088,4096,1251
128166385334266006,hm,0,Write,292962304,4096,1241
128166385334266038,hm,0,Write,292958208,4096,1209
128166385334266105,hm,0,Write,1024087040,4096,1143
128166385334266121,hm,0,Write,1160540160,512,1126
128166385334266230,hm,0,Write,3163144192,4096,1017
128166385334266259,hm,0,Write,1024091136,3072,989
128166385334266263,hm,0,Write,3154132992,4096,984
128166385334266314,hm,0,Write,1160541184,4096,933
128166385334266324,hm,0,Write,3154137088,4096,924
128166385334266330,hm,0,Write,1064436736,3072,918
128166385334266361,hm,0,Write,3163140096,4096,886
128166385334266390,hm,0,Write,200626176,4096,857
128166385334266395,hm,0,Write,3154132992,4096,853
128166385334266413,hm,0,Write,3154132992,4096,835
128166385334266415,hm,0,Write,3154137088,4096,833
128166385334266430,hm,0,Write,1160545280,4096,818
128166385334266433,hm,0,Write,292958208,4096,814
128166385334266446,hm,0,Write,292958208,4096,801
128166385334266530,hm,0,Write,1023475712,512,718
128166385334266534,hm,0,Write,1160540672,512,713
128166385351452562,hm,0,Write,6334689280,4096,2076
128166385357546157,hm,0,Write,22728704,8192,2191
128166385357546312,hm,0,Write,331210752,8192,2036
128166385357546455,hm,0,Write,1417940992,1536,1893
128166385357546459,hm,0,Write,9186996224,24576,1890
128166385357546461,hm,0,Write,1501065216,16384,1888
128166385357546478,hm,0,Write,9186996224,24576,1870
128166385357546578,hm,0,Write,1500917760,24576,1770
128166385357546582,hm,0,Write,1500917760,24576,1767
128166385357546639,hm,0,Write,1500958720,8192,1710
128166385357546640,hm,0,Write,1417940992,1536,1708
128166385357546732,hm,0,Write,864067584,8192,1616
128166385357546763,hm,0,Write,1501089792,8192,1586
128166385357546826,hm,0,Write,5770559488,8192,1522
128166385357546848,hm,0,Write,250417152,8192,1500
128166385357546875,hm,0,Write,663928832,4096,1474
128166385357546958,hm,0,Write,1501065216,16384,1390
128166385357546981,hm,0,Write,663928832,4096,1367
128166385357547039,hm,0,Write,22982656,8192,1310
128166385357547140,hm,0,Write,3163148288,4096,1209
128166385357547183,hm,0,Write,1501089792,8192,1165
128166385357547224,hm,0,Write,331210752,8192,1124
128166385357547265,hm,0,Write,864067584,8192,1083
128166385357547275,hm,0,Write,432615424,4096,1073
128166385357547280,hm,0,Write,22728704,8192,1069
