total_hits	read_hits	write_hits	drhits	dwrhits	readrate	clean_pct
0.530	0.030	0.500	0.005	0.495	0.081	0.371
0.583	0.217	0.366	0.056	0.315	0.506	0.215
0.146	0.068	0.079	0.014	0.057	0.896	0.807
0.073	0.063	0.010	0.003	0.005	0.981	0.991
0.084	0.073	0.011	0.001	0.010	0.978	0.858
0.590	0.015	0.575	0.001	0.575	0.180	0.326
0.423	0.123	0.300	0.002	0.298	0.488	0.482
0.409	0.025	0.384	0.000	0.373	0.211	0.046
0.777	0.016	0.761	0.003	0.761	0.031	0.067
0.755	0.007	0.748	0.002	0.747	0.028	0.171
0.577	0.042	0.536	0.008	0.534	0.261	0.703
0.773	0.005	0.768	0.001	0.767	0.008	0.013
0.621	0.090	0.531	0.001	0.531	0.279	0.983
0.543	0.108	0.435	0.001	0.434	0.319	0.576
0.586	0.181	0.405	0.002	0.405	0.395	0.634
0.539	0.132	0.407	0.002	0.407	0.436	0.000
0.564	0.055	0.509	0.028	0.495	0.090	0.318
0.473	0.104	0.369	0.039	0.326	0.606	0.890
0.094	0.077	0.017	0.005	0.005	0.958	0.934
0.063	0.059	0.003	0.001	0.001	0.992	0.971
0.062	0.057	0.004	0.001	0.002	0.991	0.952
0.103	0.070	0.032	0.010	0.020	0.936	0.846
0.063	0.057	0.006	0.001	0.002	0.985	0.980
0.078	0.065	0.013	0.003	0.010	0.974	0.990
0.058	0.056	0.003	0.001	0.001	0.994	0.834
0.080	0.064	0.016	0.005	0.012	0.968	0.953
0.072	0.062	0.010	0.002	0.007	0.974	0.964
0.069	0.068	0.002	0.001	0.001	0.996	0.992
0.298	0.055	0.243	0.001	0.241	0.499	0.458
0.467	0.027	0.440	0.001	0.435	0.235	0.327
0.617	0.005	0.612	0.001	0.607	0.033	0.003
0.657	0.018	0.639	0.001	0.636	0.178	0.569
0.567	0.048	0.519	0.004	0.515	0.256	0.134
0.672	0.030	0.642	0.003	0.638	0.151	0.023
0.515	0.177	0.338	0.001	0.336	0.550	0.270
0.762	0.019	0.742	0.003	0.740	0.050	0.058
0.757	0.037	0.720	0.001	0.719	0.075	0.041
0.672	0.029	0.643	0.002	0.620	0.157	0.338
0.618	0.022	0.596	0.002	0.582	0.117	0.065
0.719	0.003	0.716	0.001	0.716	0.017	0.010
0.380	0.031	0.349	0.000	0.331	0.300	0.124
0.619	0.009	0.611	0.001	0.610	0.051	0.031
0.742	0.017	0.724	0.002	0.723	0.070	0.194
0.725	0.017	0.708	0.001	0.707	0.070	0.047
0.460	0.132	0.328	0.002	0.326	0.537	0.201
0.768	0.002	0.766	0.001	0.766	0.005	0.037
0.664	0.016	0.648	0.001	0.648	0.090	0.312
0.607	0.302	0.305	0.002	0.304	0.489	0.335
0.547	0.058	0.489	0.027	0.478	0.108	0.275
0.347	0.172	0.174	0.035	0.131	0.713	0.509
0.080	0.066	0.015	0.005	0.006	0.974	0.986
0.209	0.064	0.144	0.001	0.144	0.808	0.378
0.793	0.001	0.792	0.001	0.792	0.001	0.000
0.383	0.040	0.343	0.001	0.333	0.313	0.096
0.649	0.001	0.648	0.001	0.648	0.008	0.074
0.699	0.016	0.684	0.001	0.684	0.135	0.416
0.392	0.150	0.242	0.002	0.241	0.618	0.844
0.586	0.029	0.557	0.001	0.555	0.243	0.115
0.407	0.081	0.326	0.005	0.319	0.288	0.282
0.770	0.002	0.767	0.001	0.767	0.007	0.000
0.566	0.099	0.467	0.001	0.466	0.309	0.005
0.743	0.040	0.703	0.002	0.703	0.058	0.177
0.568	0.206	0.362	0.003	0.361	0.381	0.490
0.361	0.082	0.279	0.046	0.244	0.462	0.434
0.079	0.066	0.013	0.005	0.006	0.976	0.990
0.224	0.064	0.160	0.003	0.160	0.785	0.270
0.789	0.001	0.789	0.001	0.789	0.001	0.000
0.334	0.084	0.249	0.000	0.239	0.438	0.712
0.571	0.064	0.507	0.001	0.506	0.179	0.007
0.801	0.001	0.800	0.001	0.800	0.001	0.000
0.749	0.009	0.739	0.002	0.739	0.058	0.085
0.633	0.013	0.619	0.004	0.618	0.072	0.072
0.699	0.024	0.675	0.007	0.673	0.099	0.000
0.791	0.001	0.790	0.001	0.790	0.001	0.000
0.549	0.194	0.355	0.001	0.354	0.397	0.631
0.650	0.034	0.616	0.002	0.616	0.042	0.000
0.488	0.215	0.273	0.042	0.249	0.540	0.782
0.114	0.069	0.045	0.014	0.026	0.929	0.981
0.100	0.070	0.030	0.000	0.030	0.957	0.687
0.663	0.006	0.657	0.001	0.651	0.023	0.018
0.634	0.008	0.626	0.004	0.625	0.020	0.054
0.369	0.034	0.335	0.002	0.324	0.301	0.283
0.638	0.014	0.624	0.003	0.624	0.022	0.070
0.805	0.001	0.804	0.001	0.804	0.002	0.026
0.766	0.002	0.765	0.001	0.764	0.006	0.042
0.636	0.031	0.605	0.018	0.603	0.145	0.236
0.694	0.010	0.684	0.010	0.684	0.012	0.003
0.651	0.059	0.592	0.003	0.591	0.214	0.840
0.659	0.095	0.563	0.002	0.563	0.243	0.100
0.467	0.150	0.316	0.042	0.292	0.308	0.986
0.189	0.097	0.092	0.021	0.058	0.837	0.786
0.068	0.066	0.001	0.000	0.001	0.996	0.990
0.469	0.046	0.423	0.002	0.422	0.421	0.094
0.562	0.093	0.468	0.001	0.467	0.257	0.007
0.365	0.031	0.333	0.000	0.333	0.299	0.089
0.657	0.001	0.656	0.001	0.656	0.005	0.003
0.796	0.001	0.795	0.001	0.795	0.002	0.016
0.753	0.001	0.752	0.001	0.752	0.003	0.000
0.718	0.056	0.663	0.003	0.661	0.147	0.170
0.582	0.148	0.433	0.005	0.432	0.437	0.002
0.786	0.015	0.771	0.003	0.771	0.021	0.002
0.788	0.072	0.717	0.001	0.716	0.097	0.150
